CP001472.1/3934139-3934250
1153 1264
CP001631.1/1935400-1935293
2416 2523
CP001700.1/9422701-9422569
3675 3807
AP008957.1/5227167-5227072
4959 5054
CT573213.2/7305357-7305472
6206 6321
CP000249.1/5255171-5255287
7473 7589
CP000820.1/215210-215091
8741 8860
CP001867.1/829496-829625
10012 10141
CP001778.1/452900-453004
11293 11397
ACES01000173.1/1604-1473
12549 12680
ACLF03000006.1/44662-44769
13832 13939
CP001736.1/1289540-1289681
15091 15232
CP001630.1/1349393-1349277
16384 16500
AM420293.1/1589093-1588966
17652 17779
ABJH01000081.1/1215-1362
18931 19078
ACEV01000067.1/336881-337014
20230 20363
AL939119.1/177986-178133
21515 21662
ABJI02000433.1/3689-3816
22814 22941
BA000030.3/4858626-4858480
24093 24239
ABJJ02000300.1/30118-29960
25391 25549
ACEX01000437.1/2744-2885
26701 26842
ACEW01000347.1/17844-17982
27994 28132
ABYA01000312.1/4381-4534
29284 29437
ABYX01000149.1/176896-177023
30589 30716
ACEZ01000126.1/65345-65190
31868 32023
ABJF01000395.1/4781-4624
33175 33332
ACEU01000265.1/7365-7210
34484 34639
ABYC01000290.1/27042-27199
35791 35948
ABJG02000470.1/2764-2919
37100 37255
CP002040.1/5022556-5022415
38407 38548
CP000088.1/254824-254964
39700 39840
CP001814.1/9846218-9846077
40992 41133
CP001738.1/890419-890560
42285 42426
CP000386.1/1121068-1121189
43578 43699
CP003029.1/2215558-2215432
44851 44977
CP000159.1/648790-648906
46129 46245
ADJS01002320.1/1580-1477
47397 47500
AAXU02000001.1/3185191-3185093
48652 48750
CP000383.1/165474-165365
49902 50011
CP001619.1/3294664-3294557
51163 51270
AAWS01000061.1/3106-3001
52422 52527
CP001769.1/5132553-5132446
53679 53786
AAPD01000001.1/936074-936181
54938 55045
ABVW01000002.1/44661-44766
56197 56302
AAXX01000001.1/747308-747200
57454 57562
ACKQ02000002.1/742513-742620
58714 58821
CP000685.1/4776282-4776182
59973 60073
CU207366.1/381646-381752
61225 61331
ABIB01000001.1/287097-286995
62483 62585
AANC01000003.1/237429-237533
63737 63841
CP002157.1/228642-228537
64993 65098
AANA01000001.1/1389418-1389294
66250 66374
AAOG01000001.1/142958-142849
67526 67635
AAPR01000022.1/22928-22828
68787 68887
CP001699.1/4958750-4958860
70039 70149
CP001681.1/4562963-4563072
71301 71410
ABCM01000001.1/92975-92873
72562 72664
ACHB01000100.1/57340-57454
73816 73930
ACHA02000006.1/124772-124667
75082 75187
CP001099.1/664814-664922
76339 76447
AE006470.1/606189-606295
77599 77705
CP001097.1/2001878-2001771
78857 78964
CP000108.1/1604667-1604787
80116 80236
CP000607.1/1332223-1332114
81388 81497
CP001101.1/884104-884209
82649 82754
AASE01000018.1/36798-36683
83906 84021
CP000492.1/2010009-2009901
85173 85281
CP001110.1/965443-965552
86433 86542
CP000096.1/692601-692748
87694 87841
CP001100.1/1493806-1493922
88993 89109
CP001108.1/778657-778762
90261 90366
CP000909.1/4069333-4069227
91518 91624
CP001364.1/4661646-4661757
92776 92887
CP001337.1/4323854-4323960
94039 94145
CP000875.1/1061086-1061193
95297 95404
CP000875.1/2997482-2997580
96556 96654
CP001823.1/1231295-1231405
97806 97916
CP001275.1/371734-371625
99068 99177
CP000239.1/1201745-1201635
100329 100439
BA000045.2/2730826-2730714
101591 101703
CP001968.1/2913390-2913281
102855 102964
CP002043.1/113014-112896
104116 104234
CP001743.1/842385-842265
105386 105506
ABVK02000003.1/176687-176823
106658 106794
AP008226.1/728125-727989
107946 108082
CP000922.1/2445298-2445193
109234 109339
AE017333.1/969726-969839
110491 110604
AAXV01000011.1/30443-30546
111756 111859
AL009126.3/3364503-3364397
113011 113117
AE017333.1/1207733-1207622
114269 114380
AP006627.1/1705479-1705377
115532 115634
AAOX01000002.1/320062-320165
116786 116889
AL009126.3/1258304-1258424
118041 118161
CP003056.1/960835-960734
119313 119414
AP006627.1/604071-603968
120566 120669
CP000560.1/1082099-1081978
121821 121942
BA000004.3/3427467-3427355
123094 123206
AE017333.1/1735574-1735680
124358 124464
CP001791.1/1324400-1324509
125616 125725
AE017333.1/3080753-3080616
126877 127014
AP006627.1/3008449-3008342
128166 128273
AL009126.3/3129333-3129195
129425 129563
AAOX01000055.1/439-545
130715 130821
ABRX01000004.1/223227-223118
131973 132082
AL009126.3/3999166-3999272
133234 133340
ABCF01000016.1/2236-2349
134492 134605
AAOX01000006.1/96737-96624
135757 135870
AE017333.1/4014357-4014466
137022 137131
AAXV01000007.1/124740-124627
138283 138396
AL009126.3/3997775-3997881
139548 139654
U52812.1/691-829
140806 140944
AE017333.1/1292148-1292264
142096 142212
BA000004.3/910192-910088
143364 143468
AAOX01000018.1/27020-26864
144620 144776
BA000004.3/3590821-3590709
145928 146040
CP003056.1/732327-732208
147192 147311
CP003056.1/1844232-1844126
148463 148569
AF027868.1/5245-5154
149721 149812
AAXV01000005.1/126573-126679
150964 151070
AP006627.1/1563582-1563686
152222 152326
CP000813.1/1116941-1116823
153478 153596
AJ002571.1/38016-37861
154748 154903
ABCF01000005.1/97205-97306
156055 156156
AE017333.1/3302616-3302509
157308 157415
AAOX01000006.1/30687-30791
158567 158671
AAXV01000019.1/61222-61331
159823 159932
AAOX01000038.1/20734-20635
161084 161183
AP006627.1/3104693-3104588
162335 162440
AE017333.1/1487506-1487363
163592 163735
AAOX01000014.1/12064-12163
164887 164986
AAOX01000005.1/171326-171162
166138 166302
AE017333.1/3063716-3063609
167454 167561
ACMX01000011.1/17693-17806
168713 168826
AL009126.3/1424683-1424527
169978 170134
AJ000974.1/281-386
171286 171391
AAXV01000033.1/3690-3784
172543 172637
BA000004.3/1699957-1700066
173789 173898
AL009126.3/1426876-1426976
175050 175150
AAOX01000002.1/320243-320340
176302 176399
ABFU01000060.1/128844-128955
177551 177662
AAXV01000010.1/2942-2843
178814 178913
Y09476.1/38002-37885
180065 180182
CP003056.1/3328132-3328032
181334 181434
AAXV01000007.1/42365-42470
182586 182691
AP006627.1/1701649-1701759
183843 183953
AE017333.1/1489705-1489804
185105 185204
AAOX01000002.1/340881-340984
186356 186459
AP006627.1/1983212-1983311
187611 187710
AP006627.1/951406-951512
188862 188968
BA000004.3/1348816-1348929
190120 190233
AE017355.1/4749676-4749569
191385 191492
ACLW01000047.1/255928-256033
192644 192749
AE017225.1/1375419-1375524
193901 194006
CP000001.1/185418-185523
195158 195263
AE017355.1/3872413-3872520
196415 196522
ACMS01000020.1/866-971
197674 197779
AE017355.1/1833727-1833836
198931 199040
ACNK01000182.1/46147-46039
200192 200300
AE017355.1/388363-388251
201452 201564
ACMJ01000013.1/79549-79437
202716 202828
AE017334.2/4074410-4074519
203980 204089
AAJM01000461.1/236-129
205241 205348
ACLY01000071.1/41239-41095
206500 206644
AE017334.2/2953356-2953255
207796 207897
AE017225.1/320618-320724
209049 209155
AE017355.1/1384699-1384807
210307 210415
ACMR01000082.1/17402-17507
211567 211672
AE017355.1/768972-768867
212824 212929
AE017334.2/197187-197081
214081 214187
ACML01000054.1/24739-24633
215339 215445
AE017225.1/3092372-3092274
216597 216695
AE017355.1/2515876-2515991
217847 217962
ABDA02000002.1/27359-27468
219114 219223
ACMZ01000099.1/4914-5019
220375 220480
ACMD01000102.1/19238-19132
221632 221738
ACNI01000057.1/7157-7272
222890 223005
ACND01000092.1/77021-76920
224157 224258
AE017194.1/1084280-1084386
225410 225516
AE017225.1/177275-177161
226668 226782
ACMT01000176.1/7164-7023
227934 228075
ACME01000005.1/38827-38723
229227 229331
ACLT01000057.1/24072-24187
230483 230598
AE017194.1/3299167-3299061
231750 231856
ACMW01000090.1/86610-86722
233008 233120
ACLX01000083.1/11419-11532
234272 234385
AE017225.1/4554904-4554783
235537 235658
CP000001.1/5213243-5213138
236810 236915
ACMP01000006.1/18282-18169
238067 238180
ACMV01000059.1/168768-168876
239332 239440
ACNG01000055.1/75164-75269
240592 240697
CP000764.1/3033666-3033778
241849 241961
ACMU01000050.1/34307-34422
243113 243228
AE017225.1/4074580-4074471
244380 244489
CP000001.1/3927237-3927096
245641 245782
ACMM01000043.1/11026-11131
246934 247039
CP000001.1/334370-334474
248191 248295
CP001794.1/1767716-1767554
249447 249609
BA000043.1/974636-974744
250761 250869
CP000557.1/1285675-1285779
252021 252125
BA000043.1/883132-883242
253277 253387
CP001638.1/2955292-2955189
254539 254642
BA000043.1/972359-972191
255794 255962
ABVH01000010.1/37660-37766
257114 257220
BA000043.1/745485-745383
258372 258474
BA000043.1/2876470-2876356
259626 259740
BA000043.1/3025512-3025403
260892 261001
CP000817.1/560536-560639
262153 262256
BA000028.3/2134366-2134264
263408 263510
BA000028.3/3162073-3162182
264662 264771
BA000028.3/2856865-2856757
265923 266031
BA000028.3/1098099-1097993
267183 267289
BA000028.3/2708645-2708539
268441 268547
BA000028.3/3466520-3466401
269699 269818
BA000028.3/1319041-1319141
270970 271070
BA000028.3/727026-727131
272222 272327
BA000028.3/3200638-3200530
273479 273587
BA000028.3/3200764-3200871
274739 274846
BA000028.3/2365513-2365403
275998 276108
BA000028.3/2437307-2437208
277260 277359
ACDZ02000006.1/93274-93376
278511 278613
CP001022.1/2977132-2977031
279765 279866
CP001022.1/2309368-2309263
281018 281123
CP001022.1/449125-449227
282275 282377
CP001022.1/2505940-2506043
283529 283632
CP001022.1/2804795-2804898
284784 284887
CP001022.1/2949654-2949549
286039 286144
CP001615.1/763985-763879
287296 287402
CP001022.1/2707752-2707649
288554 288657
AL591973.1/137133-137235
289809 289911
AM263198.1/870267-870363
291063 291159
AARL02000014.1/678-559
292311 292430
AL591980.1/89597-89491
293582 293688
AL591974.1/109385-109266
294840 294959
AL596163.1/172398-172500
296111 296213
AL596170.1/192-86
297365 297471
AL596169.1/221462-221354
298623 298731
AL591976.1/242770-242867
299883 299980
AL591980.1/66651-66543
301132 301240
AL591983.1/96176-96058
302392 302510
AL596165.1/180914-180814
303662 303762
AL596164.1/95936-95817
304914 305033
AARI02000249.1/265-361
306185 306281
AL596166.1/166748-166844
307433 307529
ACCR02000003.1/83189-83082
308681 308788
AL596172.1/176254-176136
309940 310058
AARM02000086.1/6918-7038
311210 311330
AP009484.1/63878-63783
312482 312577
AP008955.1/3935954-3935848
313729 313835
CP001793.1/5775580-5775452
314987 315115
CP001656.1/5519557-5519455
316267 316369
ACIH01000230.1/3738-3609
317521 317650
BX571856.1/15939-16037
318802 318900
CP000029.1/1935501-1935405
320052 320148
AP006716.1/475254-475360
321300 321406
AP006716.1/507636-507743
322558 322665
CP000046.1/900604-900707
323817 323920
AF269983.1/571-671
325072 325172
AM295250.1/465274-465380
326324 326430
CP000029.1/480767-480869
327582 327684
ACJB01000070.1/16733-16623
328836 328946
CP000046.1/2381002-2380907
330098 330193
AF270301.1/145-36
331345 331454
AP006716.1/2100177-2100072
332606 332711
AP008934.1/1948647-1948540
333863 333970
ACLP01000020.1/71764-71658
335122 335228
AP008934.1/276954-277060
336380 336486
AP008934.1/15667-15765
337638 337736
L42943.1/254-144
338888 338998
AP008934.1/1011112-1011223
340150 340261
AP008934.1/131883-131770
341413 341526
AP008934.1/318535-318643
342678 342786
ACFR01000002.1/115417-115315
343938 344040
AP006716.1/417999-418100
345192 345293
AP006716.1/14213-14314
346445 346546
U36379.1/1-106
347698 347803
AP008934.1/616628-616728
348955 349055
ABYU02000037.1/4945-4847
350207 350305
ACBZ01000203.1/8528-8629
351457 351558
CP000724.1/968949-968838
352710 352821
CP000724.1/4004549-4004448
353973 354074
CP000853.1/102837-102950
355226 355339
CP000724.1/763663-763763
356491 356591
AM412317.1/1193313-1193415
357743 357845
AM180355.1/1724139-1724245
358997 359103
CP001078.1/2736261-2736158
360255 360358
ABDT01000114.2/68234-68332
361510 361608
CP000673.1/818867-818971
362760 362864
AE001437.1/1976371-1976471
364016 364116
ABCB02000018.1/9340-9436
365268 365364
AE015927.1/1456770-1456662
366516 366624
CP000728.1/2062169-2062064
367776 367881
ABDU01000083.2/79240-79352
369033 369145
AE015927.1/303338-303443
370297 370402
AE001437.1/453563-453665
371554 371656
CP000673.1/503077-503184
372808 372915
BA000016.3/2500083-2499978
374067 374172
AB090330.1/380-279
375324 375425
CP000673.1/3384182-3384086
376577 376673
ABDQ01000003.1/211832-211918
377825 377911
ACEC01000115.1/2240-2146
379063 379157
CP000885.1/4762158-4762063
380309 380404
CP000568.1/2679822-2679717
381556 381661
ACOM01000005.1/822103-822219
382813 382929
ABWO01000038.1/8212-8308
384081 384177
ACDK01000006.1/20557-20663
385329 385435
CP000673.1/1716322-1716209
386587 386700
ABDP01000004.1/161395-161294
387852 387953
ABKW02000003.1/317079-316978
389105 389206
AE015927.1/1226200-1226097
390358 390461
CP001348.1/101863-101963
391613 391713
AP009049.1/1342262-1342152
392865 392975
CP000673.1/1915422-1915314
394127 394235
ABFD02000009.1/97533-97428
395387 395492
CP001056.1/749334-749442
396644 396752
CP000673.1/1916685-1916789
397904 398008
CP000673.1/2974771-2974666
399160 399265
CP000673.1/3104226-3104112
400417 400531
CP000727.1/1728869-1728972
401683 401786
CP000726.1/3620086-3619976
402938 403048
AE001437.1/2914841-2914733
404200 404308
AAML04000010.1/122381-122487
405460 405566
AE015927.1/2676955-2676853
406718 406820
ABEZ02000013.1/193212-193110
407972 408074
ABDT01000031.2/132-23
409226 409335
ABWP01000002.1/3034-3135
410487 410588
AM180355.1/174147-174250
411740 411843
AE001437.1/1073888-1073785
412995 413098
ABKL02000024.1/81090-81192
414250 414352
ABDT01000037.2/9251-9359
415504 415612
CP000721.1/1647224-1647332
416764 416872
CP000382.1/316300-316411
418024 418135
AP008971.1/1262692-1262597
419287 419382
AP006840.1/138157-138265
420534 420642
AP006840.1/2688754-2688649
421794 421899
AP006840.1/278272-278389
423051 423168
AP006840.1/1830606-1830721
424320 424435
ABIL02000006.1/144101-144004
425587 425684
AAVL02000036.1/100921-100817
426836 426940
CP000930.2/1734610-1734715
428092 428197
ABWN01000022.1/104834-104735
429349 429448
ABVR01000040.1/301449-301548
430600 430699
AAXA02000011.1/106110-106208
431851 431949
ACCL02000003.1/136176-136276
433101 433201
ACIQ02000024.1/9596-9700
434353 434457
ACIP02000004.1/237213-237114
435609 435708
CP000860.1/973047-972931
436860 436976
CP001336.1/1583758-1583658
438128 438228
AP008230.1/4551167-4551265
439380 439478
AP008230.1/4549598-4549497
440630 440731
AP008230.1/5317569-5317463
441883 441989
CP000612.1/107660-107768
443141 443249
CP000612.1/2872894-2873007
444401 444514
CP001720.1/3787367-3787476
445666 445775
CP000612.1/3367128-3367031
446927 447024
CP000612.1/2418052-2417945
448176 448283
AP009389.1/251789-251896
449435 449542
AP009389.1/1533734-1533850
450694 450810
AAXG02000006.1/101826-101729
451962 452059
ABGD02000008.1/40601-40696
453211 453306
ABED02000029.1/620487-620585
454458 454556
ABOU02000055.1/96522-96420
455708 455810
AAVP02000024.1/12932-13029
456962 457059
AAVO02000010.1/47842-47944
458211 458313
AAYG02000021.1/57727-57823
459465 459561
ACOK01000109.1/19481-19381
460713 460813
ACII01000156.1/15700-15599
461965 462066
ACBY02000020.1/258141-258043
463218 463316
ACJM01000005.1/12852-12955
464468 464571
CP000448.1/1653165-1653067
465723 465821
CP001098.1/2431377-2431263
466973 467087
CP001034.1/2889251-2889136
468239 468354
ABXP01000190.1/1560-1672
469506 469618
AE008691.1/1750369-1750270
470770 470869
AE008691.1/2076682-2076573
472021 472130
AE008691.1/500243-500352
473282 473391
CP000141.1/2169978-2169874
474543 474647
CP000232.1/1204935-1204832
475799 475902
CP000232.1/2070462-2070570
477054 477162
CP000232.1/1354284-1354167
478314 478431
CP000924.1/750630-750734
479583 479687
CP000923.1/995529-995640
480839 480950
CP001393.1/1215384-1215507
482102 482225
CP000679.1/1731346-1731467
483377 483498
CP001145.1/871363-871477
484650 484764
ACIN02000013.1/199862-199965
485916 486019
ACGB01000028.1/29135-29031
487171 487275
ABWK02000020.1/271385-271488
488427 488530
CP002637.1/1789046-1788942
489682 489786
ACLA01000020.1/206857-206751
490938 491044
ACKT01000016.1/194512-194407
492196 492301
AAWL01000001.1/327573-327687
493453 493567
AAWL01000002.1/146610-146509
494719 494820
AAWL01000026.1/22109-22215
495972 496078
ACIK02000010.1/282585-282485
497230 497330
ACIE02000025.1/96603-96517
498482 498568
AE009951.2/1317653-1317567
499720 499806
ACDH01000015.1/29225-29312
500958 501045
ACET01000016.1/116829-116743
502197 502283
ACDB02000007.1/188296-188209
503435 503522
ACDG02000015.1/15379-15466
504674 504761
AARG01000011.1/103271-103357
505913 505999
ACDD01000058.1/73-160
507151 507238
CP001685.1/832315-832217
508390 508488
CP001739.1/1846920-1847007
509640 509727
CT573074.1/54619-54740
510879 511000
ABRU01000018.1/11937-11821
512152 512268
CP000112.1/2490976-2491083
513420 513527
CP001649.1/963759-963659
514679 514779
AAEW02000009.1/42224-42117
515931 516038
CP001089.1/3739157-3739264
517190 517297
CP000698.1/4591678-4591570
518449 518557
CP001124.1/432444-432343
519709 519810
AE017180.1/2700118-2700220
520962 521064
CP000148.1/765280-765385
522216 522321
CP001390.1/1543852-1543744
523473 523581
CP001661.1/2331226-2331122
524733 524837
CP001089.1/3288078-3288187
525989 526098
AE017180.1/1014096-1014202
527250 527356
CP000142.2/516461-516352
528508 528617
CP000482.1/3869976-3869870
529769 529875
ACJX02000007.1/318260-318153
531027 531134
ABTR02000001.1/1201751-1201854
532286 532389
CP001818.1/1579334-1579230
533541 533645
CP001825.1/900813-900915
534797 534899
CP000879.1/1211576-1211465
536051 536162
ABOX02000046.1/18955-19074
537314 537433
CP000975.1/1171211-1171325
538585 538699
AAFX01122557.1/25-152
539851 539978
AACY020322622.1/575-479
541130 541226
ABSQ01002824.1/631-738
542378 542485
ABLU01106369.1/97-6
543637 543728
ABMW01084009.1/100-6
544880 544974
BAAZ01010499.1/873-972
546126 546225
